[
{
"model":"travelers.typeofsights",
"pk":1,
"fields":{
"title":"Театры",
"time":" ",
"colour":"#FF0000",
"marker":"marks/theater.png"
}
},
{
"model":"travelers.typeofsights",
"pk":2,
"fields":{
"title":"Красивые места",
"time":" ",
"colour":"#800000",
"marker":"marks/photo.png"
}
},
{
"model":"travelers.typeofsights",
"pk":3,
"fields":{
"title":"Кинотеатры",
"time":" ",
"colour":"#FF7F50",
"marker":"marks/cinema.png"
}
},
{
"model":"travelers.typeofsights",
"pk":4,
"fields":{
"title":"Кафе",
"time":" ",
"colour":"#FF8C00",
"marker":"marks/restaurant.png"
}
},
{
"model":"travelers.typeofsights",
"pk":5,
"fields":{
"title":"Антикафе",
"time":" ",
"colour":"#800080",
"marker":"marks/clock.png"
}
},
{
"model":"travelers.typeofsights",
"pk":6,
"fields":{
"title":"Велосипеды",
"time":" ",
"colour":"#00FFFF",
"marker":"marks/cycling.png"
}
},
{
"model":"travelers.typeofsights",
"pk":7,
"fields":{
"title":"Памятники",
"time":" ",
"colour":"#48D1CC",
"marker":"marks/art-museum-2.png"
}
},
{
"model":"travelers.typeofsights",
"pk":8,
"fields":{
"title":"Музеи",
"time":" ",
"colour":"#2E8B57",
"marker":"marks/museum_archeological.png"
}
},
{
"model":"travelers.typeofsights",
"pk":9,
"fields":{
"title":"Клубы",
"time":" ",
"colour":"#2F4F4F",
"marker":"marks/dancinghall.png"
}
},
{
"model":"travelers.typeofsights",
"pk":10,
"fields":{
"title":"Ботанический сад",
"time":" ",
"colour":"#FF1493",
"marker":"marks/forest.png"
}
},
{
"model":"travelers.typeofsights",
"pk":11,
"fields":{
"title":"Фонтаны",
"time":" ",
"colour":"#00FF00",
"marker":"marks/fountain-2.png"
}
},
{
"model":"travelers.typeofsights",
"pk":12,
"fields":{
"title":"Храмы",
"time":" ",
"colour":"#FFD700",
"marker":"marks/chapel-2.png"
}
},
{
"model":"travelers.typeofsights",
"pk":13,
"fields":{
"title":"Ролики",
"time":" ",
"colour":"#228B22",
"marker":"marks/rollerskate.png"
}
},
{
"model":"travelers.typeofsights",
"pk":14,
"fields":{
"title":"Фастфуд",
"time":" ",
"colour":"#E6E6FA",
"marker":"marks/fastfood.png"
}
},
{
"model":"travelers.typeofsights",
"pk":15,
"fields":{
"title":"Столовые",
"time":" ",
"colour":"#66CDAA",
"marker":"marks/barbecue.png"
}
},
{
"model":"travelers.typeofsights",
"pk":16,
"fields":{
"title":"Рестораны",
"time":" ",
"colour":"#FFFF00",
"marker":"marks/gourmet_0star.png"
}
},
{
"model":"travelers.typeofsights",
"pk":17,
"fields":{
"title":"Пиццерии",
"time":" ",
"colour":"#191970",
"marker":"marks/pizzeria.png"
}
},
{
"model":"travelers.typeofsights",
"pk":18,
"fields":{
"title":"Кофейни",
"time":" ",
"colour":"#FFFF40",
"marker":"marks/coffee.png"
}
},
{
"model":"travelers.typeofsights",
"pk":19,
"fields":{
"title":"Чайные",
"time":" ",
"colour":"#FFF400",
"marker":"marks/teahouse.png"
}
},
{
"model":"travelers.typeofsights",
"pk":20,
"fields":{
"title":"Кондитерские",
"time":" ",
"colour":"#FF4F00",
"marker":"marks/candy.png"
}
},
{
"model":"travelers.typeofsights",
"pk":21,
"fields":{
"title":"Суши",
"time":" ",
"colour":"#4FFF00",
"marker":"marks/japanese-food.png"
}
},
{
"model":"travelers.typeofsights",
"pk":22,
"fields":{
"title":"Выставки",
"time":" ",
"colour":"#FFFF03",
"marker":"marks/museum_art.png"
}
},
{
"model":"travelers.typeofsights",
"pk":24,
"fields":{
"title":"Филармонии",
"time":" ",
"colour":"#FFFF30",
"marker":"marks/music_classical.png"
}
},
{
"model":"travelers.typeofsights",
"pk":23,
"fields":{
"title":"Бильярд",
"time":" ",
"colour":"#FFF300",
"marker":"marks/billiard-2.png"
}
},
{
"model":"travelers.typeofsights",
"pk":25,
"fields":{
"title":"Боулинг",
"time":" ",
"colour":"#FF3F00",
"marker":"marks/bowling.png"
}
},
{
"model":"travelers.typeofsights",
"pk":26,
"fields":{
"title":"Караоке",
"time":" ",
"colour":"#F3FF00",
"marker":"marks/music_choral.png"
}
},
{
"model":"travelers.typeofsights",
"pk":27,
"fields":{
"title":"Океанариумы",
"time":" ",
"colour":"#3FFF00",
"marker":"marks/aquarium.png"
}
},
{
"model":"travelers.typeofsights",
"pk":28,
"fields":{
"title":"Цирки",
"time":" ",
"colour":"#FFFF02",
"marker":"marks/circus.png"
}
},
{
"model":"travelers.typeofsights",
"pk":29,
"fields":{
"title":"Аттракционы",
"time":" ",
"colour":"#FFFF20",
"marker":"marks/ferriswheel.png"
}
},
{
"model":"travelers.typeofsights",
"pk":30,
"fields":{
"title":"Картинг",
"time":" ",
"colour":"#FFF200",
"marker":"marks/karting.png"
}
},
{
"model":"travelers.typeofsights",
"pk":31,
"fields":{
"title":"Экскурсии",
"time":" ",
"colour":"#FF2F00",
"marker":"marks/citywalls.png"
}
},
{
"model":"travelers.typeofsights",
"pk":32,
"fields":{
"title":"Катки",
"time":" ",
"colour":"#F2FF00",
"marker":"marks/iceskating.png"
}
},
{
"model":"travelers.typeofsights",
"pk":33,
"fields":{
"title":"Бассейны",
"time":" ",
"colour":"#2FFF00",
"marker":"marks/diving.png"
}
},
{
"model":"travelers.typeofsights",
"pk":34,
"fields":{
"title":"Тренажерные залы",
"time":" ",
"colour":"#FFFF01",
"marker":"marks/fitness.png"
}
},
{
"model":"travelers.typeofsights",
"pk":35,
"fields":{
"title":"Пейнтбол",
"time":" ",
"colour":"#FF1F00",
"marker":"marks/paintball.png"
}
},
{
"model":"travelers.typeofsights",
"pk":36,
"fields":{
"title":"Страйкбол",
"time":" ",
"colour":"#FFFF10",
"marker":"marks/hunting.png"
}
},
{
"model":"travelers.typeofsights",
"pk":37,
"fields":{
"title":"Лазертаг",
"time":" ",
"colour":"#F1FF00",
"marker":"marks/zombie-outbreak1.png"
}
},
{
"model":"travelers.typeofsights",
"pk":38,
"fields":{
"title":"Теннисные корты",
"time":" ",
"colour":"#FFF100",
"marker":"marks/badminton-2.png"
}
}
]
